[
  {
    "country": "zimbabue",
    "name": "Dólar RTGS",
    "countryName": "Zimbabue",
    "countryCode": "ZWp",
    "exchangeBuy": 148.59,
    "codCurrency": "ZWS",
    "exchangeSell": 151.5618
  },
  {
    "country": "zambia",
    "name": "Kwachas zambianos",
    "countryName": "Zambia",
    "countryCode": "ZMp",
    "exchangeBuy": 19.58,
    "codCurrency": "ZMW",
    "exchangeSell": 19.9716
  },
  {
    "country": "sudafrica",
    "name": "Rands",
    "countryName": "Sudáfrica",
    "countryCode": "ZAp",
    "exchangeBuy": 16.53,
    "codCurrency": "ZAR",
    "exchangeSell": 16.8606
  },
  {
    "country": "venezuela",
    "name": "Bolívares",
    "countryName": "Venezuela",
    "countryCode": "VEp",
    "exchangeBuy": 5.08,
    "codCurrency": "VEF",
    "exchangeSell": 5.1816
  },
  {
    "country": "uruguay",
    "name": "Pesos uruguayos",
    "countryName": "Uruguay",
    "countryCode": "UYp",
    "exchangeBuy": 47.19,
    "codCurrency": "UYU",
    "exchangeSell": 48.1338
  },
  {
    "country": "usa",
    "name": "Dólares USA",
    "countryName": "Estados Unidos",
    "countryCode": "USp",
    "exchangeBuy": 1.1,
    "codCurrency": "USD",
    "exchangeSell": 1.122
  },
  {
    "country": "uganda",
    "name": "Chelines ugandeses",
    "countryName": "Uganda",
    "countryCode": "UGp",
    "exchangeBuy": 3937.75,
    "codCurrency": "UGX",
    "exchangeSell": 4016.505
  },
  {
    "country": "ucrania",
    "name": "Grivnas",
    "countryName": "Ucrania",
    "countryCode": "UAp",
    "exchangeBuy": 33.17,
    "codCurrency": "UAH",
    "exchangeSell": 33.8334
  },
  {
    "country": "taiwan",
    "name": "Nuevos dólares taiwaneses",
    "countryName": "Taiwan",
    "countryCode": "TWp",
    "exchangeBuy": 33.42,
    "codCurrency": "TWD",
    "exchangeSell": 34.0884
  },
  {
    "country": "trinidad-tobago",
    "name": "Dólares trinitense ",
    "countryName": "Trinidad y Tobago",
    "countryCode": "TTp",
    "exchangeBuy": 7.42,
    "codCurrency": "TTD",
    "exchangeSell": 7.5684
  },
  {
    "country": "turquia",
    "name": "Liras turcas",
    "countryName": "Turquía",
    "countryCode": "TRp",
    "exchangeBuy": 16.31,
    "codCurrency": "TRY",
    "exchangeSell": 16.6362
  },
  {
    "country": "tunez",
    "name": "Dinares tunecinos",
    "countryName": "Túnez",
    "countryCode": "TNp",
    "exchangeBuy": 3.26,
    "codCurrency": "TNL",
    "exchangeSell": 3.3252
  },
  {
    "country": "tailandia",
    "name": "Bahts",
    "countryName": "Tailandia",
    "countryCode": "THp",
    "exchangeBuy": 36.74,
    "codCurrency": "THB",
    "exchangeSell": 37.4748
  },
  {
    "country": "singapur",
    "name": "Dólares Singapur",
    "countryName": "Singapur",
    "countryCode": "SGp",
    "exchangeBuy": 1.5,
    "codCurrency": "SGD",
    "exchangeSell": 1.53
  },
  {
    "country": "suecia",
    "name": "Coronas suecas",
    "countryName": "Suecia",
    "countryCode": "SEp",
    "exchangeBuy": 10.43,
    "codCurrency": "SEK",
    "exchangeSell": 10.6386
  },
  {
    "country": "arabia-saudita",
    "name": "Riales",
    "countryName": "Arabia Saudita",
    "countryCode": "SAp",
    "exchangeBuy": 4.14,
    "codCurrency": "SAR",
    "exchangeSell": 4.2228
  },
  {
    "country": "rusia",
    "name": "Rublos rusos",
    "countryName": "Rusia",
    "countryCode": "RUp",
    "exchangeBuy": 115.82,
    "codCurrency": "RUB",
    "exchangeSell": 118.1364
  },
  {
    "country": "serbia",
    "name": "Dinares",
    "countryName": "Serbia",
    "countryCode": "RSp",
    "exchangeBuy": 117.67,
    "codCurrency": "BHD",
    "exchangeSell": 120.0234
  },
  {
    "country": "rumania",
    "name": "Leis rumanos",
    "countryName": "Rumanía",
    "countryCode": "ROp",
    "exchangeBuy": 4.95,
    "codCurrency": "RON",
    "exchangeSell": 5.049
  },
  {
    "country": "catar",
    "name": "Riyales cataries",
    "countryName": "Catar",
    "countryCode": "QAp",
    "exchangeBuy": 4.02,
    "codCurrency": "QAR",
    "exchangeSell": 4.1004
  },
  {
    "country": "paraguay",
    "name": "Guaranies",
    "countryName": "Paraguay",
    "countryCode": "PYp",
    "exchangeBuy": 7728.52,
    "codCurrency": "PYG",
    "exchangeSell": 7883.0904
  },
  {
    "country": "polonia",
    "name": "Zlotys polacos",
    "countryName": "Polonia",
    "countryCode": "PLp",
    "exchangeBuy": 4.71,
    "codCurrency": "PLN",
    "exchangeSell": 4.8042
  },
  {
    "country": "pakistan",
    "name": "Rupias paquistanies",
    "countryName": "Pakistán",
    "countryCode": "PKp",
    "exchangeBuy": 199.71,
    "codCurrency": "PKR",
    "exchangeSell": 203.7042
  },
  {
    "country": "filipinas",
    "name": "Pesos filipinos",
    "countryName": "Filipinas",
    "countryCode": "PHp",
    "exchangeBuy": 57.86,
    "codCurrency": "PHP",
    "exchangeSell": 59.0172
  },
  {
    "country": "peru",
    "name": "Soles",
    "countryName": "Perú",
    "countryCode": "PEp",
    "exchangeBuy": 4.09,
    "codCurrency": "PEN",
    "exchangeSell": 4.1718
  },
  {
    "country": "oman",
    "name": "Riales omaníes",
    "countryName": "Omán",
    "countryCode": "OMp",
    "exchangeBuy": 0.42,
    "codCurrency": "OMR",
    "exchangeSell": 0.4284
  },
  {
    "country": "nueva-zelanda",
    "name": "Dólares neozelandeses",
    "countryName": "Nueva Zelanda",
    "countryCode": "NZp",
    "exchangeBuy": 1.6,
    "codCurrency": "NZD",
    "exchangeSell": 1.632
  },
  {
    "country": "nepal",
    "name": "Rupias nepalies",
    "countryName": "Nepal",
    "countryCode": "NPp",
    "exchangeBuy": 129.62,
    "codCurrency": "NPR",
    "exchangeSell": 132.2124
  },
  {
    "country": "noruega",
    "name": "Coronas noruegas",
    "countryName": "Noruega",
    "countryCode": "NOp",
    "exchangeBuy": 9.69,
    "codCurrency": "NOK",
    "exchangeSell": 9.8838
  },
  {
    "country": "nigeria",
    "name": "Nairas",
    "countryName": "Nigeria",
    "countryCode": "NGp",
    "exchangeBuy": 459.72,
    "codCurrency": "NGN",
    "exchangeSell": 468.9144
  },
  {
    "country": "namibia",
    "name": "Dólares namibios",
    "countryName": "Namibia",
    "countryCode": "NAp",
    "exchangeBuy": 16.54,
    "codCurrency": "NAD",
    "exchangeSell": 16.8708
  },
  {
    "country": "malasia",
    "name": "Ringgits",
    "countryName": "Malasia",
    "countryCode": "MYp",
    "exchangeBuy": 4.62,
    "codCurrency": "MYR",
    "exchangeSell": 4.7124
  },
  {
    "country": "mexico",
    "name": "Pesos mexicanos",
    "countryName": "México",
    "countryCode": "MXp",
    "exchangeBuy": 22.59,
    "codCurrency": "MXN",
    "exchangeSell": 23.0418
  },
  {
    "country": "maldivas",
    "name": "Rufiyaa",
    "countryName": "Maldivas",
    "countryCode": "MVp",
    "exchangeBuy": 0.91,
    "codCurrency": "MVR",
    "exchangeSell": 0.9282
  },
  {
    "country": "mauricio",
    "name": "Rupias de Mauricio",
    "countryName": "Mauricio",
    "countryCode": "MUp",
    "exchangeBuy": 48.49,
    "codCurrency": "MUR",
    "exchangeSell": 49.4598
  },
  {
    "country": "mauritania",
    "name": "Ouguiyas",
    "countryName": "Mauritania",
    "countryCode": "MRp",
    "exchangeBuy": 40.1,
    "codCurrency": "MRO",
    "exchangeSell": 40.902
  },
  {
    "country": "moldavia",
    "name": "Leus moldavos",
    "countryName": "Moldavia",
    "countryCode": "MDp",
    "exchangeBuy": 20.37,
    "codCurrency": "MDL",
    "exchangeSell": 20.7774
  },
  {
    "country": "marruecos",
    "name": "Dirhams marroquies",
    "countryName": "Marruecos",
    "countryCode": "MAp",
    "exchangeBuy": 10.81,
    "codCurrency": "MAD",
    "exchangeSell": 11.0262
  },
  {
    "country": "sri-lanka",
    "name": "Rupias de Sri Lanka",
    "countryName": "Sri Lanka",
    "countryCode": "LKp",
    "exchangeBuy": 208.49,
    "codCurrency": "LKR",
    "exchangeSell": 212.6598
  },
  {
    "country": "libano",
    "name": "Libras libanesas",
    "countryName": "Líbano",
    "countryCode": "LBp",
    "exchangeBuy": 1665.1,
    "codCurrency": "LBP",
    "exchangeSell": 1698.402
  },
  {
    "country": "kazajistan",
    "name": "Tenges",
    "countryName": "Kazajistán",
    "countryCode": "KZp",
    "exchangeBuy": 436.61,
    "codCurrency": "KZT",
    "exchangeSell": 445.3422
  },
  {
    "country": "kuwait",
    "name": "Dinares kuwaities",
    "countryName": "Kuwait",
    "countryCode": "KWp",
    "exchangeBuy": 0.34,
    "codCurrency": "KWD",
    "exchangeSell": 0.3468
  },
  {
    "country": "corea-del-sur",
    "name": "Won surcoreanos",
    "countryName": "Corea del Sur",
    "countryCode": "KRp",
    "exchangeBuy": 1337.31,
    "codCurrency": "KRW",
    "exchangeSell": 1364.0562
  },
  {
    "country": "kenia",
    "name": "Chelines kenianos",
    "countryName": "Kenia",
    "countryCode": "KEp",
    "exchangeBuy": 126.4,
    "codCurrency": "KES",
    "exchangeSell": 128.928
  },
  {
    "country": "japon",
    "name": "Yenes japoneses",
    "countryName": "Japón",
    "countryCode": "JPp",
    "exchangeBuy": 131.4,
    "codCurrency": "JPY",
    "exchangeSell": 134.028
  },
  {
    "country": "islandia",
    "name": "Coronas islandesas",
    "countryName": "Islandia",
    "countryCode": "ISp",
    "exchangeBuy": 142.3,
    "codCurrency": "ISK",
    "exchangeSell": 145.146
  },
  {
    "country": "iran",
    "name": "Riales iraníes",
    "countryName": "Irán",
    "countryCode": "IRp",
    "exchangeBuy": 51013,
    "codCurrency": "IRR",
    "exchangeSell": 52033.26
  },
  {
    "country": "india",
    "name": "Rupias indias",
    "countryName": "India",
    "countryCode": "INp",
    "exchangeBuy": 83.78,
    "codCurrency": "INR",
    "exchangeSell": 85.4556
  },
  {
    "country": "israel",
    "name": "Nuevos shéquels",
    "countryName": "Israel",
    "countryCode": "ILp",
    "exchangeBuy": 3.58,
    "codCurrency": "ILS",
    "exchangeSell": 3.6516
  },
  {
    "country": "indonesia",
    "name": "Rupias indonesas",
    "countryName": "Indonesia",
    "countryCode": "IDp",
    "exchangeBuy": 15782.11,
    "codCurrency": "IDR",
    "exchangeSell": 16097.7522
  },
  {
    "country": "hungria",
    "name": "Forints húngaros",
    "countryName": "Hungría",
    "countryCode": "HUp",
    "exchangeBuy": 375.33,
    "codCurrency": "HUF",
    "exchangeSell": 382.8366
  },
  {
    "country": "croacia",
    "name": "Kunas croatas",
    "countryName": "Croacia",
    "countryCode": "HRp",
    "exchangeBuy": 7.57,
    "codCurrency": "KRK",
    "exchangeSell": 7.7214
  },
  {
    "country": "hong-kong",
    "name": "Dólares de Hong Kong",
    "countryName": "Hong Kong",
    "countryCode": "HKp",
    "exchangeBuy": 8.61,
    "codCurrency": "HKD",
    "exchangeSell": 8.7822
  },
  {
    "country": "ghana",
    "name": "Cedi",
    "countryName": "Ghana",
    "countryCode": "GHp",
    "exchangeBuy": 7.8,
    "codCurrency": "GHC",
    "exchangeSell": 7.956
  },
  {
    "country": "georgia",
    "name": "Laris",
    "countryName": "Georgia",
    "countryCode": "GEp",
    "exchangeBuy": 3.54,
    "codCurrency": "GEL",
    "exchangeSell": 3.6108
  },
  {
    "country": "uk",
    "name": "Libras esterlinas",
    "countryName": "Reino Unido",
    "countryCode": "GBp",
    "exchangeBuy": 0.84,
    "codCurrency": "GBP",
    "exchangeSell": 0.8568
  },
  {
    "country": "egipto",
    "name": "Libras egipcias",
    "countryName": "Egipto",
    "countryCode": "EGp",
    "exchangeBuy": 19.12,
    "codCurrency": "EGP",
    "exchangeSell": 19.5024
  },
  {
    "country": "zona-euro",
    "name": "Euro",
    "countryName": "Zona Euro",
    "countryCode": "EAp",
    "exchangeBuy": 1,
    "codCurrency": "EUR",
    "exchangeSell": 1.02
  },
  {
    "country": "argelia",
    "name": "Dinares argelinos",
    "countryName": "Argelia",
    "countryCode": "DZp",
    "exchangeBuy": 157.24,
    "codCurrency": "DZD",
    "exchangeSell": 160.3848
  },
  {
    "country": "republica-dominicana",
    "name": "Pesos dominicanos",
    "countryName": "República Dominicana",
    "countryCode": "DOp",
    "exchangeBuy": 60.64,
    "codCurrency": "DOP",
    "exchangeSell": 61.8528
  },
  {
    "country": "dinamarca",
    "name": "Coronas danesas",
    "countryName": "Dinamarca",
    "countryCode": "DKp",
    "exchangeBuy": 7.44,
    "codCurrency": "DKK",
    "exchangeSell": 7.5888
  },
  {
    "country": "republica-checa",
    "name": "Coronas checas",
    "countryName": "República Checa",
    "countryCode": "CZp",
    "exchangeBuy": 24.84,
    "codCurrency": "CZK",
    "exchangeSell": 25.3368
  },
  {
    "country": "colombia",
    "name": "Pesos colombianos",
    "countryName": "Colombia",
    "countryCode": "COp",
    "exchangeBuy": 4379.53,
    "codCurrency": "COP",
    "exchangeSell": 4467.1206
  },
  {
    "country": "china",
    "name": "Yuanes chinos",
    "countryName": "China",
    "countryCode": "CNp",
    "exchangeBuy": 7,
    "codCurrency": "CNY",
    "exchangeSell": 7.14
  },
  {
    "country": "chile",
    "name": "Pesos chilenos",
    "countryName": "Chile",
    "countryCode": "CLp",
    "exchangeBuy": 888.09,
    "codCurrency": "CLP",
    "exchangeSell": 905.8518
  },
  {
    "country": "suiza",
    "name": "Francos suizos",
    "countryName": "Suiza",
    "countryCode": "CHp",
    "exchangeBuy": 1.03,
    "codCurrency": "CHF",
    "exchangeSell": 1.0506
  },
  {
    "country": "canada",
    "name": "Dólares canadienses",
    "countryName": "Canadá",
    "countryCode": "CAp",
    "exchangeBuy": 1.39,
    "codCurrency": "CAD",
    "exchangeSell": 1.4178
  },
  {
    "country": "belice",
    "name": "Dólares Beliceños",
    "countryName": "Belice",
    "countryCode": "BZp",
    "exchangeBuy": 2.21,
    "codCurrency": "BZD",
    "exchangeSell": 2.2542
  },
  {
    "country": "bielorrusia",
    "name": "Rublos bielorrusos",
    "countryName": "Bielorrusia",
    "countryCode": "BYp",
    "exchangeBuy": 3.14,
    "codCurrency": "BYR",
    "exchangeSell": 3.2028
  },
  {
    "country": "botsuana",
    "name": "Pulas",
    "countryName": "Botsuana",
    "countryCode": "BWp",
    "exchangeBuy": 12.78,
    "codCurrency": "BWP",
    "exchangeSell": 13.0356
  },
  {
    "country": "brasil",
    "name": "Reales brasileños",
    "countryName": "Brasil",
    "countryCode": "BRp",
    "exchangeBuy": 5.58,
    "codCurrency": "BRL",
    "exchangeSell": 5.6916
  },
  {
    "country": "bolivia",
    "name": "Bolivianos",
    "countryName": "Bolivia",
    "countryCode": "BOp",
    "exchangeBuy": 7.61,
    "codCurrency": "BOB",
    "exchangeSell": 7.7622
  },
  {
    "country": "brunei",
    "name": "Dólares de Brunéi",
    "countryName": "Brunéi",
    "countryCode": "BNp",
    "exchangeBuy": 1.5,
    "codCurrency": "BND",
    "exchangeSell": 1.53
  },
  {
    "country": "barein",
    "name": "Dinares",
    "countryName": "Baréin",
    "countryCode": "BHp",
    "exchangeBuy": 0.43,
    "codCurrency": "BHD",
    "exchangeSell": 0.4386
  },
  {
    "country": "bulgaria",
    "name": "Levs",
    "countryName": "Bulgaria",
    "countryCode": "BGp",
    "exchangeBuy": 1.96,
    "codCurrency": "BGN",
    "exchangeSell": 1.9992
  },
  {
    "country": "banglades",
    "name": "Takas",
    "countryName": "Bangladés",
    "countryCode": "BDp",
    "exchangeBuy": 94.2,
    "codCurrency": "BDT",
    "exchangeSell": 96.084
  },
  {
    "country": "bosnia-herzegovina",
    "name": "Marcos convertibles ",
    "countryName": "Bosnia y Herzegovina",
    "countryCode": "BAp",
    "exchangeBuy": 1.96,
    "codCurrency": "BAM",
    "exchangeSell": 1.9992
  },
  {
    "country": "azerbaiyan",
    "name": "Manat azeríes",
    "countryName": "Azerbaiyán",
    "countryCode": "AZp",
    "exchangeBuy": 1.88,
    "codCurrency": "AZN",
    "exchangeSell": 1.9176
  },
  {
    "country": "australia",
    "name": "Dólares australianos",
    "countryName": "Australia",
    "countryCode": "AUp",
    "exchangeBuy": 1.49,
    "codCurrency": "AUD",
    "exchangeSell": 1.5198
  },
  {
    "country": "argentina",
    "name": "Pesos argentinos",
    "countryName": "Argentina",
    "countryCode": "ARp",
    "exchangeBuy": 91.6,
    "codCurrency": "ARS",
    "exchangeSell": 93.432
  },
  {
    "country": "angola",
    "name": "Kwanzas",
    "countryName": "Angola",
    "countryCode": "AOp",
    "exchangeBuy": 504.33,
    "codCurrency": "AOA",
    "exchangeSell": 514.4166
  },
  {
    "country": "armenia",
    "name": "Drams",
    "countryName": "Armenia",
    "countryCode": "AMp",
    "exchangeBuy": 539.32,
    "codCurrency": "AMD",
    "exchangeSell": 550.1064
  },
  {
    "country": "albania",
    "name": "Leks",
    "countryName": "Albania",
    "countryCode": "ALp",
    "exchangeBuy": 122.83,
    "codCurrency": "ALL",
    "exchangeSell": 125.2866
  },
  {
    "country": "emiratos-arabes-unidos",
    "name": "Dirhams de Emiratos Árabes Unido",
    "countryName": "Emiratos Árabes Unidos",
    "countryCode": "AEp",
    "exchangeBuy": 4.06,
    "codCurrency": "AED",
    "exchangeSell": 4.1412
  }
]